…
Alle Teilnehmer der Umfrage waren slowakischer Nationalität und zwischen
15 und 30 Jahre alt. Der Datensatz enthält fehlende Werte, die bei der
Datenanalyse ausgeschlossen werden.

## 1.4 Datentransformationen

Da wir nur die Hobbys und Interessen untersuchen wollen, haben wir die
entsprechenden Spalten `select`iert. Unten befindet sich ein Überblick
über den Datensatz.

``` r
get_data()
#> # A tibble: 1,010 × 32
#>    History Psychology Politics Mathematics Physics Internet    PC
#>      <dbl>      <dbl>    <dbl>       <dbl>   <dbl>    <dbl> <dbl>
#>  1       1          5        1           3       3        5     3
#>  2       1          3        4           5       2        4     4
#>  3       1          2        1           5       2        4     2
#>  4       4          4        5           4       1        3     1
#>  5       3          2        3           2       2        2     2
#>  6       5          3        4           2       3        4     4
#>  7       3          3        1           1       1        2     1
#>  8       5          2        3           1       1        5     4
#>  9       3          2        1           1       1        1     1
#> 10       3          2        3           3       1        5     1
#> # ℹ 1,000 more rows
#> # ℹ 25 more variables: `Economy Management` <dbl>, Biology <dbl>,
#> #   Chemistry <dbl>, Reading <dbl>, Geography <dbl>, `Foreign languages` <dbl>,
#> #   Medicine <dbl>, Law <dbl>, Cars <dbl>, `Art exhibitions` <dbl>,
#> #   Religion <dbl>, `Countryside, outdoors` <dbl>, Dancing <dbl>,
#> #   `Musical instruments` <dbl>, Writing <dbl>, `Passive sport` <dbl>,
#> #   `Active sport` <dbl>, Gardening <dbl>, Celebrities <dbl>, Shopping <dbl>, …
```
…
Weiterhin soll auf die Problematik eingegangen werden, dass der
Datensatz aus einer Perspektive betrachtet relativ wenige Einträge
enthält. Nämlich, wenn wir Chi-Quadrat-Tests durchführen wollen, müssen
die Einträge in der Häufigkeitstabelle mindestens eine gewisse Größe
haben. Wie man erkennt, haben die Befragten ihr Engagement mit den
Kategorien von 1 bis 5 bewertet („Not interested 1-2-3-4-5 Very
interested“). Daher wurde die Entscheidung getroffen, die Einträge
umzubenennen. „Very/Fairly/Not much interested in X“ korrespondiert mit
den Zahlen 5/4-3/2-1 auf der Skala. Dies erkennt man an den Funktionen
`get_var_data` und `get_one_var_data`, die wesentlich bei der Analyse
verwendet werden.

``` r
get_var_data("Medicine", "Internet")
#> # A tibble: 1,001 × 2
#>    col_1                                 col_2                                
#>    <chr>                                 <chr>                                
#>  1 "Fairly interested in \"Medicine\""   "Very interested in \"Internet\""    
#>  2 "Not much interested in \"Medicine\"" "Fairly interested in \"Internet\""  
#>  3 "Not much interested in \"Medicine\"" "Fairly interested in \"Internet\""  
#>  4 "Not much interested in \"Medicine\"" "Fairly interested in \"Internet\""  
#>  5 "Fairly interested in \"Medicine\""   "Not much interested in \"Internet\""
#>  6 "Fairly interested in \"Medicine\""   "Fairly interested in \"Internet\""  
#>  7 "Very interested in \"Medicine\""     "Not much interested in \"Internet\""
#>  8 "Not much interested in \"Medicine\"" "Very interested in \"Internet\""    
#>  9 "Not much interested in \"Medicine\"" "Not much interested in \"Internet\""
#> 10 "Not much interested in \"Medicine\"" "Very interested in \"Internet\""    
#> # ℹ 991 more rows
```
…
